"","","","","","","","","","","","","","","","",""
"","","","","","","","","","","","","","","","",""
"","Advisor Check-In - Usage Report","","","","","","","","","","","","","","",""
"","","","","","","","","","","","","","","","",""
"","","","","","","","","","","","","","","","",""
"","Rydell Chevrolet Buick GMC Cadillac","","","","","","","","","","","","","","",""
"","","","","","","","","","","","","","","","",""
"","2/12/2021 to 2/12/2021","","","","","","","","","","","","","","",""
"","","","","","","","","","","","","","","","",""
"","","","","","","","","","","","","","","","",""
"","","","","","","","","","","","","","","","",""
"","","Summary","","","","","","","","","","","","","",""
"","","","","","","","","","","","","","","","",""
"","","","RO Initiations through Advisor Check-In - Summary","","","","","","","","","","","","",""
"","","","","","","","","","","","","","","","",""
"","","First Name","","Last Name","DMSID","Push Count","# of Maintenance Menus Generated","Total $ Pushed","","Average Dollars Per RO","Total Hours Sold","","","Utilization %","","Maintenance Menu Generation %"
"","","Gary","","Jankowski","499",5.0,0.0,347.92,"",69.58,5.5,"","","*","",0.0
"","","Harrison","","Green","475",7.0,0.0,349.08,"",49.87,3.5,"","","*","",0.0
"","","Joseph","","Slominski","494",7.0,0.0,290.04,"",41.43,3.2,"","","*","",0.0
"","","Justin","","Rodriguez","469",3.0,3.0,517.56,"",172.52,3.9,"","","*","",1.0
"","","Kelsey","","Kozel","504",16.0,0.0,299.25,"",18.7,6.0,"","","*","",0.0
"","","Liz","","Howard","745",7.0,0.0,0.0,"",0.0,0.0,"","","*","",0.0
"","","Nick","","Bach","512",9.0,0.0,1471.82,"",163.54,11.4,"","","*","",0.0
"","","Nick","","Maro","439",2.0,0.0,34.95,"",17.48,2.4,"","","*","",0.0
"","","Rod","","Troftgruben","714",4.0,1.0,224.79,"",56.2,1.4,"","","*","",0.25
"","","Rudy","","Robles","401",19.0,1.0,1218.9,"",64.15,13.1,"","","*","",0.05263157894736842
"","","Service","","Advisor 10","10",3.0,0.0,388.26,"",129.42,2.5,"","","*","",0.0
"","","Tasha","","Lindemann","500",20.0,0.0,419.79,"",20.99,8.1,"","","*","",0.0
"","","Subtotal","","","",102.0,5.0,5562.36,"",54.53294117647059,61.0,"","","*","",0.049019607843137254
"","","Total","","","",102.0,5.0,5562.36,"",54.53294117647059,61.0,"","","*","",0.049019607843137254
