"","","","","","","","","","",""
"","","","","","","","","","",""
"","","Dynamic MPI – Usage Report","","","","","","","",""
"","","","","","","","","","",""
"","","","","","","","","","",""
"","","Rydell Chevrolet Buick GMC Cadillac","","","","","","","",""
"","","","","","","","","","",""
"","","1/31/2021 to 1/31/2021","","","","","","","",""
"","","","","","","","","","",""
"","","","","","","","","","",""
"","Out of Process - DMPI was Sent to customer but Customer Signature Not Captured for DMPI Confirmation","","","","","","","","",""
"","","","","","","","","","",""
"","","","MPI Completed","","DMPI Sent","","Out of Process","","",""
"","Advisor Name","","#","%","#","%","#","%","Advisor Approved","Approval from DMS"
"","Total","","","0%","","0%","","0%","","*"
